…
```r
lichen_data
```

```
## # A tibble: 1,628 x 91
##         id institution_code collection_code owner_institution_c~ basis_of_record
##      <dbl> <chr>            <chr>           <lgl>                <chr>          
##  1 3314688 DAV              Lichens         NA                   PreservedSpeci~
##  2 3314689 DAV              Lichens         NA                   PreservedSpeci~
##  3 3314690 DAV              Lichens         NA                   PreservedSpeci~
##  4 3314691 DAV              Lichens         NA                   PreservedSpeci~
##  5 3314692 DAV              Lichens         NA                   PreservedSpeci~
##  6 3314693 DAV              Lichens         NA                   PreservedSpeci~
##  7 3314694 DAV              Lichens         NA                   PreservedSpeci~
##  8 3314695 DAV              Lichens         NA                   PreservedSpeci~
##  9 3314696 DAV              Lichens         NA                   PreservedSpeci~
## 10 3314697 DAV              Lichens         NA                   PreservedSpeci~
## # ... with 1,618 more rows, and 86 more variables: occurrence_id <chr>,
## #   catalog_number <chr>, other_catalog_numbers <lgl>,
## #   higher_classification <chr>, kingdom <chr>, phylum <chr>, class <chr>,
## #   order <chr>, family <chr>, scientific_name <chr>, taxon_id <dbl>,
## #   scientific_name_authorship <chr>, genus <chr>, subgenus <chr>,
## #   specific_epithet <chr>, verbatim_taxon_rank <chr>,
## #   infraspecific_epithet <chr>, taxon_rank <chr>, identified_by <chr>, ...
```

```r
lichens <- lichen_data %>% 
 select("class", "family", "scientific_name", "genus", "year", "recorded_by", "country", "state_province", "county")
lichens
```

```
## # A tibble: 1,628 x 9
##    class   family scientific_name genus  year recorded_by country state_province
##    <chr>   <chr>  <chr>           <chr> <dbl> <chr>       <chr>   <chr>         
##  1 Lecano~ Colle~ Collema nigres~ Coll~  2017 Beth Beyer  United~ California    
##  2 Lecano~ Clado~ Cladonia squam~ Clad~  2017 Benjamin M~ USA     California    
##  3 Lecano~ Clado~ Cladonia squam~ Clad~  2017 Lana Sayka~ USA     California    
##  4 Lecano~ Parme~ Evernia prunas~ Ever~  2017 Emma Hanse~ USA     California    
##  5 Lecano~ Parme~ Evernia prunas~ Ever~  2017 Lana Sayka~ USA     California    
##  6 Lecano~ Parme~ Flavoparmelia ~ Flav~  2017 Allie Weill USA     California    
##  7 Lecano~ Colle~ Collema nigres~ Coll~  2017 Beth Beyer  USA     California    
##  8 Lecano~ Parme~ Flavopunctelia~ Flav~  2017 Beth Beyer  USA     California    
##  9 Lecano~ Parme~ Flavopunctelia~ Flav~  2017 Emma Hanse~ USA     California    
## 10 Lecano~ Parme~ Flavopunctelia~ Flav~  2017 Benajmin M~ USA     California    
## # ... with 1,618 more rows, and 1 more variable: county <chr>
```

```r
lichens %>% 
  count(scientific_name) %>% 
  arrange(desc(n))
```

```
## # A tibble: 762 x 2
##    scientific_name               n
##    <chr>                     <int>
##  1 <NA>                         55
##  2 Flavoparmelia caperata       19
##  3 Evernia prunastri            16
##  4 Ramalina menziesii           16
##  5 Ramalina farinacea           15
##  6 Flavopunctelia flaventior    14
##  7 Hypogymnia physodes          14
##  8 Xanthoria polycarpa          14
##  9 Letharia vulpina             13
## 10 Parmelia sulcata             13
## # ... with 752 more rows
```

```r
lichens %>% 
  group_by(year) %>% 
  arrange()
```

```
## # A tibble: 1,628 x 9
## # Groups:   year [73]
##    class   family scientific_name genus  year recorded_by country state_province
##    <chr>   <chr>  <chr>           <chr> <dbl> <chr>       <chr>   <chr>         
##  1 Lecano~ Colle~ Collema nigres~ Coll~  2017 Beth Beyer  United~ California    
##  2 Lecano~ Clado~ Cladonia squam~ Clad~  2017 Benjamin M~ USA     California    
##  3 Lecano~ Clado~ Cladonia squam~ Clad~  2017 Lana Sayka~ USA     California    
##  4 Lecano~ Parme~ Evernia prunas~ Ever~  2017 Emma Hanse~ USA     California    
##  5 Lecano~ Parme~ Evernia prunas~ Ever~  2017 Lana Sayka~ USA     California    
##  6 Lecano~ Parme~ Flavoparmelia ~ Flav~  2017 Allie Weill USA     California    
##  7 Lecano~ Colle~ Collema nigres~ Coll~  2017 Beth Beyer  USA     California    
##  8 Lecano~ Parme~ Flavopunctelia~ Flav~  2017 Beth Beyer  USA     California    
##  9 Lecano~ Parme~ Flavopunctelia~ Flav~  2017 Emma Hanse~ USA     California    
## 10 Lecano~ Parme~ Flavopunctelia~ Flav~  2017 Benajmin M~ USA     California    
## # ... with 1,618 more rows, and 1 more variable: county <chr>
```


```r
lichens %>% 
  count(year) %>% 
  arrange(desc(n))
```

```
## # A tibble: 73 x 2
##     year     n
##    <dbl> <int>
##  1  1975   175
##  2  1971   158
##  3  1979   108
##  4  2017   107
##  5  1970    95
##  6  1966    82
##  7  1978    72
##  8  2001    59
##  9  1962    50
## 10  1969    50
## # ... with 63 more rows
```
…
```r
lichens %>% 
  filter(state_province=="California") %>% 
  count(year) %>% 
  arrange(desc(n))
```

```
## # A tibble: 45 x 2
##     year     n
##    <dbl> <int>
##  1  1975   169
##  2  2017   107
##  3  1979   106
##  4  1966    81
##  5  1978    70
##  6  2000    46
##  7  1996    24
##  8  1969    21
##  9  1965    19
## 10  1997    19
## # ... with 35 more rows
```
…
```r
lichens %>% 
  count(genus) %>% 
  arrange(desc(n))
```

```
## # A tibble: 194 x 2
##    genus           n
##    <chr>       <int>
##  1 Cladonia      104
##  2 <NA>          100
##  3 Ramalina       73
##  4 Usnea          64
##  5 Hypogymnia     50
##  6 Lecanora       49
##  7 Xanthoria      41
##  8 Parmelia       39
##  9 Umbilicaria    36
## 10 Lecidea        33
## # ... with 184 more rows
```

```r
lichens <- lichens %>% 
  na_if("Lichen") %>% 
  mutate(family=na_if(family, ("Lichen")))
lichens
```

```
## # A tibble: 1,628 x 9
##    class   family scientific_name genus  year recorded_by country state_province
##    <chr>   <chr>  <chr>           <chr> <dbl> <chr>       <chr>   <chr>         
##  1 Lecano~ Colle~ Collema nigres~ Coll~  2017 Beth Beyer  United~ California    
##  2 Lecano~ Clado~ Cladonia squam~ Clad~  2017 Benjamin M~ USA     California    
##  3 Lecano~ Clado~ Cladonia squam~ Clad~  2017 Lana Sayka~ USA     California    
##  4 Lecano~ Parme~ Evernia prunas~ Ever~  2017 Emma Hanse~ USA     California    
##  5 Lecano~ Parme~ Evernia prunas~ Ever~  2017 Lana Sayka~ USA     California    
##  6 Lecano~ Parme~ Flavoparmelia ~ Flav~  2017 Allie Weill USA     California    
##  7 Lecano~ Colle~ Collema nigres~ Coll~  2017 Beth Beyer  USA     California    
##  8 Lecano~ Parme~ Flavopunctelia~ Flav~  2017 Beth Beyer  USA     California    
##  9 Lecano~ Parme~ Flavopunctelia~ Flav~  2017 Emma Hanse~ USA     California    
## 10 Lecano~ Parme~ Flavopunctelia~ Flav~  2017 Benajmin M~ USA     California    
## # ... with 1,618 more rows, and 1 more variable: county <chr>
```
…
```r
lichens %>% 
  filter(state_province == "California") %>% 
  count(family) %>% 
  arrange(desc(n))
```

```
## # A tibble: 51 x 2
##    family              n
##    <chr>           <int>
##  1 Parmeliaceae      220
##  2 <NA>               76
##  3 Ramalinaceae       60
##  4 Teloschistaceae    59
##  5 Physciaceae        52
##  6 Lecanoraceae       45
##  7 Cladoniaceae       37
##  8 Collemataceae      29
##  9 Caliciaceae        26
## 10 Verrucariaceae     21
## # ... with 41 more rows
```
…
```r
lichens %>% 
  count(country) %>% 
  arrange(desc(n))
```

```
## # A tibble: 21 x 2
##    country            n
##    <chr>          <int>
##  1 United States   1185
##  2 New Zealand      115
##  3 United Kingdom   114
##  4 USA              100
##  5 Mexico            45
##  6 Canada            19
##  7 <NA>              12
##  8 Ecuador           11
##  9 Cayman Islands     6
## 10 Iceland            5
## # ... with 11 more rows
```

```r
lichens %>% 
  filter(state_province=="California") %>% 
  count(county) %>% 
  arrange(desc(n))
```

```
## # A tibble: 49 x 2
##    county              n
##    <chr>           <int>
##  1 Napa              113
##  2 Solano             83
##  3 Mendocino          82
##  4 Marin              64
##  5 Santa Barbara      48
##  6 San Mateo          46
##  7 Tehama             34
##  8 Butte              29
##  9 Alpine             26
## 10 San Luis Obispo    24
## # ... with 39 more rows
```
…
